<?xml version="1.0" encoding="UTF-8"?>
<svg width="80px" height="72px" viewBox="0 0 80 72" version="1.1" xmlns="http://www.w3.org/2000/svg" xmlns:xlink="http://www.w3.org/1999/xlink">
    <!-- Generator: sketchtool 49.1 (51147) - http://www.bohemiancoding.com/sketch -->
    <title>B9286EF5-168B-401B-9D81-6D02DDE9D686</title>
    <desc>Created with sketchtool.</desc>
    <defs></defs>
    <g id="Page-1" stroke="none" stroke-width="1" fill="none" fill-rule="evenodd">
        <g id="UI-KIT" transform="translate(-376.000000, -2884.000000)" stroke="#D1D1D1" stroke-width="5.25">
            <g id="scanner-UWP-style" transform="translate(379.000000, 2887.000000)">
                <path d="M1.53696929,4.86077875 L23.3298362,0.0143353275 C23.358315,0.00845416751 24.2710976,0.00367572501 26.068184,0 C26.3058726,0 28.2632435,1.46551156 28.8853962,1.46551156 L56.6851027,1.65848712 C56.8296875,1.65848712 56.9709863,1.60555668 57.0805202,1.50851754 L58.6227576,0.14996958 C58.7333869,0.0540331576 58.8735903,0 59.0192704,0 L59.6622344,0 C59.773959,0 59.8823976,0.03087609 59.9765968,0.0882174001 L63.246184,2.09406054 C63.4258196,2.20433229 63.5353535,2.400616 63.5353535,2.61123504 L63.5353535,19.0119524 C63.5353535,19.1497921 63.488254,19.2854264 63.4006268,19.3934927 L62.8430992,20.0837939 C62.7883323,20.1521623 62.7182306,20.2072982 62.6393661,20.246996 L59.709334,21.6882478 C59.6271836,21.7290484 59.5362704,21.75 59.4453573,21.75 L25.6771479,21.75 C25.5763767,21.75 25.4777962,21.7246375 25.3890737,21.6772206 C25.1141436,21.5239429 24.4427007,21.1765869 23.7997367,21.0288228 C22.9639929,20.8369499 4.9401879,17.3766224 3.84265811,17.0634506 C2.74512833,16.7513816 2.2905626,15.4292233 2.00467909,15.2373504 C1.82066212,15.1127434 1.58625955,14.8701455 1.44386546,14.7124569 C1.35842901,14.6187259 1.3047574,14.4996324 1.29051799,14.3728199 L1.19084213,13.4608725 C1.17660272,13.3351627 1.12293111,13.2160693 1.03858999,13.1212356 L0.604835707,12.639348 C0.521589934,12.5467197 0.467918318,12.4309344 0.45367891,12.3063273 L0.00458987502,8.60009379 C-0.0140308898,8.44791878 0.024305979,8.29464105 0.114123786,8.17113669 L0.360575085,7.82819154 C0.433962806,7.72563882 0.473395014,7.60213446 0.474490353,7.47532194 C0.478871709,6.92837406 0.56430816,5.36913151 1.3803358,4.91591462 C1.42853072,4.8894494 1.48220233,4.87290864 1.53696929,4.86077875 Z" id="Stroke-1"></path>
                <polyline id="Stroke-3" points="63.6329935 4.5 74 8.00864553 73.8133038 16.5456183 63.5353535 19.5"></polyline>
                <path d="M22.9377623,21 C24.7979022,21.676996 26.2068684,25.0105724 25.8633242,26.515494 C25.5882714,27.7294933 25.4784677,28.1286912 25.4784677,28.1286912 L25.8905033,28.2730587 L24.9044444,33.3565439 L24.5369825,33.5709078 L23.7194342,37.9927087 L24.0031844,38.3022238 L23.2225997,42.8793292 L22.8073025,43.1888443 L22.1082552,47.5504922 L22.3800465,47.9092235 L21.7407933,51.9132337 L21.3265834,52.2829019 L20.6275361,56.6204885 L20.8764969,57.0732774 L20.3546576,60.6244987 L19.9045711,61.161502 L19.4468745,64.3889902 C19.3435938,65.1141086 19.8915251,65.7659497 20.6188387,65.7834488 C23.4052434,65.8523514 29.6151317,66 31.1360759,66 C33.1136296,66 35.7086932,64.5935108 36.4316582,61.1494714 C37.1535359,57.705432 41.5967806,39.0120306 42.040344,37.3310244 C42.4849946,35.6511119 44.3505703,35.0244258 45.1333293,34.9183376 C45.9150012,34.810062 48.5704312,35.034269 48.9976872,34.9183376 C49.4227688,34.8024061 50.8550803,32.8709442 50.8279012,31.3868028 C50.8018092,29.903755 50.3745533,29.9475027 50.2767084,27.5435654 C50.1799507,25.1385345 50.2158271,22.7520962 50.7126617,21.9482319" id="Stroke-7"></path>
            </g>
        </g>
    </g>
</svg>